<?xml version="1.0" standalone="no"?>
<!DOCTYPE svg PUBLIC "-//W3C//DTD SVG 20010904//EN"
 "http://www.w3.org/TR/2001/REC-SVG-20010904/DTD/svg10.dtd">
<svg version="1.0" xmlns="http://www.w3.org/2000/svg"
 width="64.000000pt" height="13.000000pt" viewBox="0 0 64.000000 13.000000"
 preserveAspectRatio="xMidYMid meet">
<metadata>
Created by potrace 1.11, written by Peter Selinger 2001-2013
</metadata>
<g transform="translate(0.000000,13.000000) scale(0.100000,-0.100000)"
fill="#000000" stroke="none">
<path d="M87 110 c3 -10 11 -25 19 -31 10 -8 11 -15 4 -24 -8 -9 -8 -15 0 -20
24 -15 6 -24 -52 -28 -35 -2 82 -4 260 -5 l322 -2 0 65 0 65 -279 0 c-273 0
-279 0 -274 -20z m483 -5 c0 -8 8 -15 17 -15 14 0 12 -4 -7 -25 l-23 -25 21 0
c12 0 22 -4 22 -10 0 -5 -20 -10 -45 -10 -25 0 -45 5 -45 10 0 6 10 10 22 10
l21 0 -23 25 c-19 21 -21 25 -7 25 9 0 17 7 17 15 0 8 7 15 15 15 8 0 15 -7
15 -15z m-322 -15 c17 -11 32 -22 32 -25 0 -6 -62 -45 -72 -45 -5 0 -8 20 -8
45 0 25 3 45 8 45 4 0 22 -9 40 -20z m142 -25 c0 -33 -4 -45 -15 -45 -11 0
-15 12 -15 45 0 33 4 45 15 45 11 0 15 -12 15 -45z m40 0 c0 -33 -4 -45 -15
-45 -11 0 -15 12 -15 45 0 33 4 45 15 45 11 0 15 -12 15 -45z"/>
</g>
</svg>
